{
  "collapse": false,
  "description": "Run of tissue_segmentation_pipeline_dcm_2018-04-16T15-48-35 started at 2018-04-16 15:48:35.888526",
  "id": "tissue_segmentation_pipeline_dcm_2018-04-16T15-48-35",
  "network": {
    "description": "",
    "groups": [
      {
        "description": "undefined",
        "id": "0_knnseg",
        "parent_group": "root"
      },
      {
        "description": "undefined",
        "id": "1_elastix_mask",
        "parent_group": "root"
      },
      {
        "description": "undefined",
        "id": "2_convert",
        "parent_group": "root"
      },
      {
        "description": "undefined",
        "id": "3_multi_atlas_reg",
        "parent_group": "root"
      },
      {
        "description": "undefined",
        "id": "4_sinks",
        "parent_group": "root"
      },
      {
        "description": "undefined",
        "id": "5_nii2ana_flip",
        "parent_group": "root"
      },
      {
        "description": "undefined",
        "id": "6_finalconvert",
        "parent_group": "root"
      },
      {
        "description": "undefined",
        "id": "7_NUC",
        "parent_group": "root"
      },
      {
        "description": "undefined",
        "id": "8_wmlsegment",
        "parent_group": "root"
      },
      {
        "description": "undefined",
        "id": "9_coreg",
        "parent_group": "root"
      },
      {
        "description": "undefined",
        "id": "10_mask2ana",
        "parent_group": "root"
      },
      {
        "description": "undefined",
        "id": "11_sources",
        "parent_group": "root"
      },
      {
        "description": "undefined",
        "id": "12_brainmaskimprove",
        "parent_group": "root"
      },
      {
        "description": "undefined",
        "id": "13_mnc2ana",
        "parent_group": "root"
      },
      {
        "description": "undefined",
        "id": "14_rama",
        "parent_group": "root"
      },
      {
        "description": "undefined",
        "id": "15_mnc2ana_flip",
        "parent_group": "root"
      }
    ],
    "links": [
      {
        "from_node": "58_multi_atlas_combine_masks",
        "from_port": "out_hard_segment",
        "id": "105_link_88",
        "to_node": "57_mask_nii2ana_flip",
        "to_port": "in_image",
        "type": "NiftiImageFileCompressed"
      },
      {
        "from_node": "47_multi_atlas_combine_lobes_intensity",
        "from_port": "out_image",
        "id": "106_link_89",
        "to_node": "102_lobes_nii2ana_flip",
        "to_port": "in_image",
        "type": "NiftiImageFileCompressed"
      },
      {
        "from_node": "72_multi_atlas_trans_lobes_t1",
        "from_port": "out_image",
        "id": "107_link_80",
        "to_node": "87_multi_atlas_combine_lobes",
        "to_port": "in_images",
        "type": "NiftiImageFileCompressed"
      },
      {
        "from_node": "88_const_multi_atlas_combine_lobes_method_0",
        "from_port": "out_output",
        "id": "108_link_81",
        "to_node": "87_multi_atlas_combine_lobes",
        "to_port": "in_method",
        "type": "__PxCombineSegmentations_0.3.2_interface__method__Enum__"
      },
      {
        "from_node": "61_const_multi_atlas_combine_lobes_number_of_classes_0",
        "from_port": "out_output",
        "id": "109_link_82",
        "to_node": "87_multi_atlas_combine_lobes",
        "to_port": "in_number_of_classes",
        "type": "Int"
      },
      {
        "from_node": "87_multi_atlas_combine_lobes",
        "from_port": "out_hard_segment",
        "id": "110_link_83",
        "to_node": "47_multi_atlas_combine_lobes_intensity",
        "to_port": "in_image",
        "type": "NiftiImageFileCompressed"
      },
      {
        "from_node": "83_multi_atlases_lobes_finallabels",
        "from_port": "out_output",
        "id": "111_link_84",
        "to_node": "87_multi_atlas_combine_lobes",
        "to_port": "in_original_labels",
        "type": "Int"
      },
      {
        "from_node": "59_multi_atlases_lobes_templabels",
        "from_port": "out_output",
        "id": "112_link_85",
        "to_node": "87_multi_atlas_combine_lobes",
        "to_port": "in_substitute_labels",
        "type": "Int"
      },
      {
        "from_node": "59_multi_atlases_lobes_templabels",
        "from_port": "out_output",
        "id": "113_link_86",
        "to_node": "47_multi_atlas_combine_lobes_intensity",
        "to_port": "in_original_values",
        "type": "Int"
      },
      {
        "from_node": "83_multi_atlases_lobes_finallabels",
        "from_port": "out_output",
        "id": "114_link_87",
        "to_node": "47_multi_atlas_combine_lobes_intensity",
        "to_port": "in_substitute_values",
        "type": "Int"
      },
      {
        "from_node": "62_mincresample_pd",
        "from_port": "out_image",
        "id": "115_link_39",
        "to_node": "67_N3_PD",
        "to_port": "in_image",
        "type": "MincImageFile"
      },
      {
        "from_node": "33_mask2mnc_modify_header",
        "from_port": "out_image",
        "id": "116_link_38",
        "to_node": "67_N3_PD",
        "to_port": "in_mask",
        "type": "MincImageFile"
      },
      {
        "from_node": "42_dcm2mnc_t1",
        "from_port": "out_image",
        "id": "117_link_35",
        "to_node": "19_N3_T1",
        "to_port": "in_image",
        "type": "MincImageFile"
      },
      {
        "from_node": "33_mask2mnc_modify_header",
        "from_port": "out_image",
        "id": "118_link_34",
        "to_node": "19_N3_T1",
        "to_port": "in_mask",
        "type": "MincImageFile"
      },
      {
        "from_node": "20_const_N3_PD_stop_0",
        "from_port": "out_output",
        "id": "119_link_37",
        "to_node": "67_N3_PD",
        "to_port": "in_stop",
        "type": "Float"
      },
      {
        "from_node": "55_const_N3_PD_iterations_0",
        "from_port": "out_output",
        "id": "120_link_36",
        "to_node": "67_N3_PD",
        "to_port": "in_iterations",
        "type": "Int"
      },
      {
        "from_node": "40_mask2mnc_ana2mnc",
        "from_port": "out_image",
        "id": "121_link_31",
        "to_node": "33_mask2mnc_modify_header",
        "to_port": "in_mask",
        "type": "MincImageFile"
      },
      {
        "from_node": "42_dcm2mnc_t1",
        "from_port": "out_image",
        "id": "122_link_30",
        "to_node": "33_mask2mnc_modify_header",
        "to_port": "in_image",
        "type": "MincImageFile"
      },
      {
        "from_node": "98_const_N3_T1_stop_0",
        "from_port": "out_output",
        "id": "123_link_33",
        "to_node": "19_N3_T1",
        "to_port": "in_stop",
        "type": "Float"
      },
      {
        "from_node": "28_const_N3_T1_iterations_0",
        "from_port": "out_output",
        "id": "124_link_32",
        "to_node": "19_N3_T1",
        "to_port": "in_iterations",
        "type": "Int"
      },
      {
        "from_node": "91_BrainMaskImprove",
        "from_port": "out_segmentation",
        "id": "125_link_104",
        "to_node": "77_ana2nii_knnwml",
        "to_port": "in_image",
        "type": "AnalyzeImageFile"
      },
      {
        "from_node": "86_ana2nii_T1",
        "from_port": "out_image",
        "id": "126_link_105",
        "to_node": "77_ana2nii_knnwml",
        "to_port": "in_reference_image",
        "type": "NiftiImageFileCompressed"
      },
      {
        "from_node": "86_ana2nii_T1",
        "from_port": "out_image",
        "id": "127_link_106",
        "to_node": "73_sink_t1",
        "to_port": "in_input",
        "type": "NiftiImageFileCompressed"
      },
      {
        "from_node": "32_ana2nii_pd",
        "from_port": "out_image",
        "id": "128_link_107",
        "to_node": "46_sink_pd",
        "to_port": "in_input",
        "type": "NiftiImageFileCompressed"
      },
      {
        "from_node": "57_mask_nii2ana_flip",
        "from_port": "out_image",
        "id": "129_link_100",
        "to_node": "63_ana2nii_mask",
        "to_port": "in_image",
        "type": "AnalyzeImageFile"
      },
      {
        "from_node": "86_ana2nii_T1",
        "from_port": "out_image",
        "id": "130_link_101",
        "to_node": "63_ana2nii_mask",
        "to_port": "in_reference_image",
        "type": "NiftiImageFileCompressed"
      },
      {
        "from_node": "102_lobes_nii2ana_flip",
        "from_port": "out_image",
        "id": "131_link_102",
        "to_node": "24_ana2nii_lobes",
        "to_port": "in_image",
        "type": "AnalyzeImageFile"
      },
      {
        "from_node": "86_ana2nii_T1",
        "from_port": "out_image",
        "id": "132_link_103",
        "to_node": "24_ana2nii_lobes",
        "to_port": "in_reference_image",
        "type": "NiftiImageFileCompressed"
      },
      {
        "from_node": "92_ana2nii_flair",
        "from_port": "out_image",
        "id": "133_link_108",
        "to_node": "16_sink_flair",
        "to_port": "in_input",
        "type": "NiftiImageFileCompressed"
      },
      {
        "from_node": "103_ana2nii_swi",
        "from_port": "out_image",
        "id": "134_link_109",
        "to_node": "36_sink_swi",
        "to_port": "in_input",
        "type": "NiftiImageFileCompressed"
      },
      {
        "from_node": "93_elastix_mask",
        "from_port": "out_transform",
        "id": "135_link_28",
        "to_node": "37_transformix_mask",
        "to_port": "in_transform",
        "type": "ElastixTransformFile"
      },
      {
        "from_node": "37_transformix_mask",
        "from_port": "out_image",
        "id": "136_link_29",
        "to_node": "40_mask2mnc_ana2mnc",
        "to_port": "in_image",
        "type": "AnalyzeImageFile"
      },
      {
        "from_node": "42_dcm2mnc_t1",
        "from_port": "out_image",
        "id": "137_link_22",
        "to_node": "80_minc2ana_t1",
        "to_port": "in_image",
        "type": "MincImageFile"
      },
      {
        "from_node": "53_const_minc2ana_t1_neuro_flag_0",
        "from_port": "out_output",
        "id": "138_link_23",
        "to_node": "80_minc2ana_t1",
        "to_port": "in_neuro_flag",
        "type": "Boolean"
      },
      {
        "from_node": "68_dcm2mnc_swi",
        "from_port": "out_image",
        "id": "139_link_20",
        "to_node": "89_mincresample_swi",
        "to_port": "in_image",
        "type": "MincImageFile"
      },
      {
        "from_node": "42_dcm2mnc_t1",
        "from_port": "out_image",
        "id": "140_link_21",
        "to_node": "89_mincresample_swi",
        "to_port": "in_like",
        "type": "MincImageFile"
      },
      {
        "from_node": "101_const_registration_parameters",
        "from_port": "out_output",
        "id": "141_link_26",
        "to_node": "93_elastix_mask",
        "to_port": "in_parameters",
        "type": "ElastixParameterFile"
      },
      {
        "from_node": "22_const_transformix_mask_image_0",
        "from_port": "out_output",
        "id": "142_link_27",
        "to_node": "37_transformix_mask",
        "to_port": "in_image",
        "type": "NiftiImageFileCompressed"
      },
      {
        "from_node": "80_minc2ana_t1",
        "from_port": "out_image",
        "id": "143_link_24",
        "to_node": "93_elastix_mask",
        "to_port": "in_fixed_image",
        "type": "AnalyzeImageFile"
      },
      {
        "from_node": "17_const_elastix_mask_moving_image_0",
        "from_port": "out_output",
        "id": "144_link_25",
        "to_node": "93_elastix_mask",
        "to_port": "in_moving_image",
        "type": "NiftiImageFileCompressed"
      },
      {
        "from_node": "77_ana2nii_knnwml",
        "from_port": "out_image",
        "id": "145_link_113",
        "to_node": "31_sink_knnwml",
        "to_port": "in_input",
        "type": "NiftiImageFileCompressed"
      },
      {
        "from_node": "24_ana2nii_lobes",
        "from_port": "out_image",
        "id": "146_link_112",
        "to_node": "78_sink_lobes",
        "to_port": "in_input",
        "type": "NiftiImageFileCompressed"
      },
      {
        "from_node": "63_ana2nii_mask",
        "from_port": "out_image",
        "id": "147_link_111",
        "to_node": "35_sink_mask",
        "to_port": "in_input",
        "type": "NiftiImageFileCompressed"
      },
      {
        "from_node": "65_ana2nii_knnseg",
        "from_port": "out_image",
        "id": "148_link_110",
        "to_node": "23_sink_knnseg",
        "to_port": "in_input",
        "type": "NiftiImageFileCompressed"
      },
      {
        "from_node": "34_const_rama_flair_const2_0",
        "from_port": "out_output",
        "id": "149_link_59",
        "to_node": "82_rama_flair",
        "to_port": "in_const2",
        "type": "Float"
      },
      {
        "from_node": "104_const_rama_flair_const1_0",
        "from_port": "out_output",
        "id": "150_link_58",
        "to_node": "82_rama_flair",
        "to_port": "in_const1",
        "type": "Float"
      },
      {
        "from_node": "33_mask2mnc_modify_header",
        "from_port": "out_image",
        "id": "151_link_57",
        "to_node": "82_rama_flair",
        "to_port": "in_mask",
        "type": "MincImageFile"
      },
      {
        "from_node": "49_N3_flair",
        "from_port": "out_image",
        "id": "152_link_56",
        "to_node": "82_rama_flair",
        "to_port": "in_image",
        "type": "MincImageFile"
      },
      {
        "from_node": "45_const_rama_PD_constants_0",
        "from_port": "out_output",
        "id": "153_link_55",
        "to_node": "41_rama_PD",
        "to_port": "in_constants",
        "type": "Float"
      },
      {
        "from_node": "84_const_rama_PD_range_0",
        "from_port": "out_output",
        "id": "154_link_54",
        "to_node": "41_rama_PD",
        "to_port": "in_range",
        "type": "Float"
      },
      {
        "from_node": "33_mask2mnc_modify_header",
        "from_port": "out_image",
        "id": "155_link_53",
        "to_node": "41_rama_PD",
        "to_port": "in_mask",
        "type": "MincImageFile"
      },
      {
        "from_node": "67_N3_PD",
        "from_port": "out_image",
        "id": "156_link_52",
        "to_node": "41_rama_PD",
        "to_port": "in_image",
        "type": "MincImageFile"
      },
      {
        "from_node": "81_const_rama_T1_constants_0",
        "from_port": "out_output",
        "id": "157_link_51",
        "to_node": "74_rama_T1",
        "to_port": "in_constants",
        "type": "Float"
      },
      {
        "from_node": "94_const_rama_T1_range_0",
        "from_port": "out_output",
        "id": "158_link_50",
        "to_node": "74_rama_T1",
        "to_port": "in_range",
        "type": "Float"
      },
      {
        "from_node": "18_thresholds",
        "from_port": "out_output",
        "id": "159_link_9",
        "to_node": "97_mritoself_flair",
        "to_port": "in_threshold",
        "type": "Int"
      },
      {
        "from_node": "42_dcm2mnc_t1",
        "from_port": "out_image",
        "id": "160_link_8",
        "to_node": "97_mritoself_flair",
        "to_port": "in_source",
        "type": "MincImageFile"
      },
      {
        "from_node": "85_SWI",
        "from_port": "out_output",
        "id": "161_link_3",
        "to_node": "68_dcm2mnc_swi",
        "to_port": "in_dicom_images",
        "type": "DicomImageFile"
      },
      {
        "from_node": "60_FLAIR",
        "from_port": "out_output",
        "id": "162_link_2",
        "to_node": "96_dcm2mnc_flair",
        "to_port": "in_dicom_images",
        "type": "DicomImageFile"
      },
      {
        "from_node": "56_PD",
        "from_port": "out_output",
        "id": "163_link_1",
        "to_node": "75_dcm2mnc_pd",
        "to_port": "in_dicom_images",
        "type": "DicomImageFile"
      },
      {
        "from_node": "95_T1",
        "from_port": "out_output",
        "id": "164_link_0",
        "to_node": "42_dcm2mnc_t1",
        "to_port": "in_dicom_images",
        "type": "DicomImageFile"
      },
      {
        "from_node": "96_dcm2mnc_flair",
        "from_port": "out_image",
        "id": "165_link_7",
        "to_node": "97_mritoself_flair",
        "to_port": "in_target",
        "type": "MincImageFile"
      },
      {
        "from_node": "18_thresholds",
        "from_port": "out_output",
        "id": "166_link_6",
        "to_node": "69_mritoself_pd",
        "to_port": "in_threshold",
        "type": "Int"
      },
      {
        "from_node": "42_dcm2mnc_t1",
        "from_port": "out_image",
        "id": "167_link_5",
        "to_node": "69_mritoself_pd",
        "to_port": "in_source",
        "type": "MincImageFile"
      },
      {
        "from_node": "75_dcm2mnc_pd",
        "from_port": "out_image",
        "id": "168_link_4",
        "to_node": "69_mritoself_pd",
        "to_port": "in_target",
        "type": "MincImageFile"
      },
      {
        "from_node": "19_N3_T1",
        "from_port": "out_image",
        "id": "169_link_48",
        "to_node": "74_rama_T1",
        "to_port": "in_image",
        "type": "MincImageFile"
      },
      {
        "from_node": "33_mask2mnc_modify_header",
        "from_port": "out_image",
        "id": "170_link_49",
        "to_node": "74_rama_T1",
        "to_port": "in_mask",
        "type": "MincImageFile"
      },
      {
        "from_node": "29_const_N3_swi_iterations_0",
        "from_port": "out_output",
        "id": "171_link_44",
        "to_node": "38_N3_swi",
        "to_port": "in_iterations",
        "type": "Int"
      },
      {
        "from_node": "26_const_N3_swi_stop_0",
        "from_port": "out_output",
        "id": "172_link_45",
        "to_node": "38_N3_swi",
        "to_port": "in_stop",
        "type": "Float"
      },
      {
        "from_node": "33_mask2mnc_modify_header",
        "from_port": "out_image",
        "id": "173_link_46",
        "to_node": "38_N3_swi",
        "to_port": "in_mask",
        "type": "MincImageFile"
      },
      {
        "from_node": "89_mincresample_swi",
        "from_port": "out_image",
        "id": "174_link_47",
        "to_node": "38_N3_swi",
        "to_port": "in_image",
        "type": "MincImageFile"
      },
      {
        "from_node": "27_const_N3_flair_iterations_0",
        "from_port": "out_output",
        "id": "175_link_40",
        "to_node": "49_N3_flair",
        "to_port": "in_iterations",
        "type": "Int"
      },
      {
        "from_node": "100_const_N3_flair_stop_0",
        "from_port": "out_output",
        "id": "176_link_41",
        "to_node": "49_N3_flair",
        "to_port": "in_stop",
        "type": "Float"
      },
      {
        "from_node": "33_mask2mnc_modify_header",
        "from_port": "out_image",
        "id": "177_link_42",
        "to_node": "49_N3_flair",
        "to_port": "in_mask",
        "type": "MincImageFile"
      },
      {
        "from_node": "76_mincresample_flair",
        "from_port": "out_image",
        "id": "178_link_43",
        "to_node": "49_N3_flair",
        "to_port": "in_image",
        "type": "MincImageFile"
      },
      {
        "from_node": "48_const_multi_atlas_combine_masks_number_of_classes_0",
        "from_port": "out_output",
        "id": "179_link_79",
        "to_node": "58_multi_atlas_combine_masks",
        "to_port": "in_number_of_classes",
        "type": "Int"
      },
      {
        "from_node": "90_const_multi_atlas_combine_masks_method_0",
        "from_port": "out_output",
        "id": "180_link_78",
        "to_node": "58_multi_atlas_combine_masks",
        "to_port": "in_method",
        "type": "__PxCombineSegmentations_0.3.2_interface__method__Enum__"
      },
      {
        "from_node": "79_multi_atlases_scans_t1",
        "from_port": "out_output",
        "id": "181_link_71",
        "to_node": "54_multi_atlas_reg_t1",
        "to_port": "in_moving_image",
        "type": "NiftiImageFileCompressed"
      },
      {
        "from_node": "66_minc2ana_t1_flip",
        "from_port": "out_image",
        "id": "182_link_70",
        "to_node": "54_multi_atlas_reg_t1",
        "to_port": "in_fixed_image",
        "type": "AnalyzeImageFile"
      },
      {
        "from_node": "70_multi_atlases_masks",
        "from_port": "out_output",
        "id": "183_link_73",
        "to_node": "25_multi_atlas_trans_masks_t1",
        "to_port": "in_image",
        "type": "NiftiImageFileCompressed"
      },
      {
        "from_node": "101_const_registration_parameters",
        "from_port": "out_output",
        "id": "184_link_72",
        "to_node": "54_multi_atlas_reg_t1",
        "to_port": "in_parameters",
        "type": "ElastixParameterFile"
      },
      {
        "from_node": "71_multi_atlases_lobes",
        "from_port": "out_output",
        "id": "185_link_75",
        "to_node": "72_multi_atlas_trans_lobes_t1",
        "to_port": "in_image",
        "type": "NiftiImageFileCompressed"
      },
      {
        "from_node": "54_multi_atlas_reg_t1",
        "from_port": "out_transform",
        "id": "186_link_74",
        "to_node": "25_multi_atlas_trans_masks_t1",
        "to_port": "in_transform",
        "type": "ElastixTransformFile"
      },
      {
        "from_node": "25_multi_atlas_trans_masks_t1",
        "from_port": "out_image",
        "id": "187_link_77",
        "to_node": "58_multi_atlas_combine_masks",
        "to_port": "in_images",
        "type": "NiftiImageFileCompressed"
      },
      {
        "from_node": "54_multi_atlas_reg_t1",
        "from_port": "out_transform",
        "id": "188_link_76",
        "to_node": "72_multi_atlas_trans_lobes_t1",
        "to_port": "in_transform",
        "type": "ElastixTransformFile"
      },
      {
        "from_node": "67_N3_PD",
        "from_port": "out_image",
        "id": "189_link_66",
        "to_node": "30_minc2ana_pd_flip",
        "to_port": "in_image",
        "type": "MincImageFile"
      },
      {
        "from_node": "49_N3_flair",
        "from_port": "out_image",
        "id": "190_link_67",
        "to_node": "52_minc2ana_flair_flip",
        "to_port": "in_image",
        "type": "MincImageFile"
      },
      {
        "from_node": "41_rama_PD",
        "from_port": "out_image",
        "id": "191_link_64",
        "to_node": "51_knnseg",
        "to_port": "in_pd",
        "type": "MincImageFile"
      },
      {
        "from_node": "19_N3_T1",
        "from_port": "out_image",
        "id": "192_link_65",
        "to_node": "66_minc2ana_t1_flip",
        "to_port": "in_image",
        "type": "MincImageFile"
      },
      {
        "from_node": "39_const_knnseg_trained_features_0",
        "from_port": "out_output",
        "id": "193_link_62",
        "to_node": "51_knnseg",
        "to_port": "in_trained_features",
        "type": "MincClassifyFeatureFile"
      },
      {
        "from_node": "74_rama_T1",
        "from_port": "out_image",
        "id": "194_link_63",
        "to_node": "51_knnseg",
        "to_port": "in_t1",
        "type": "MincImageFile"
      },
      {
        "from_node": "99_const_rama_flair_const3_0",
        "from_port": "out_output",
        "id": "195_link_60",
        "to_node": "82_rama_flair",
        "to_port": "in_const3",
        "type": "Float"
      },
      {
        "from_node": "43_const_knnseg_parameters_0",
        "from_port": "out_output",
        "id": "196_link_61",
        "to_node": "51_knnseg",
        "to_port": "in_parameters",
        "type": "MincClassifyParameterFile"
      },
      {
        "from_node": "38_N3_swi",
        "from_port": "out_image",
        "id": "197_link_68",
        "to_node": "44_minc2ana_swi_flip",
        "to_port": "in_image",
        "type": "MincImageFile"
      },
      {
        "from_node": "51_knnseg",
        "from_port": "out_label_image",
        "id": "198_link_69",
        "to_node": "21_minc2ana_knnseg_flip",
        "to_port": "in_image",
        "type": "MincImageFile"
      },
      {
        "from_node": "69_mritoself_pd",
        "from_port": "out_transform",
        "id": "199_link_13",
        "to_node": "62_mincresample_pd",
        "to_port": "in_transform",
        "type": "MNIAffineTransformFile"
      },
      {
        "from_node": "18_thresholds",
        "from_port": "out_output",
        "id": "200_link_12",
        "to_node": "50_mritoself_swi",
        "to_port": "in_threshold",
        "type": "Int"
      },
      {
        "from_node": "42_dcm2mnc_t1",
        "from_port": "out_image",
        "id": "201_link_11",
        "to_node": "50_mritoself_swi",
        "to_port": "in_source",
        "type": "MincImageFile"
      },
      {
        "from_node": "68_dcm2mnc_swi",
        "from_port": "out_image",
        "id": "202_link_10",
        "to_node": "50_mritoself_swi",
        "to_port": "in_target",
        "type": "MincImageFile"
      },
      {
        "from_node": "96_dcm2mnc_flair",
        "from_port": "out_image",
        "id": "203_link_17",
        "to_node": "76_mincresample_flair",
        "to_port": "in_image",
        "type": "MincImageFile"
      },
      {
        "from_node": "97_mritoself_flair",
        "from_port": "out_transform",
        "id": "204_link_16",
        "to_node": "76_mincresample_flair",
        "to_port": "in_transform",
        "type": "MNIAffineTransformFile"
      },
      {
        "from_node": "42_dcm2mnc_t1",
        "from_port": "out_image",
        "id": "205_link_15",
        "to_node": "62_mincresample_pd",
        "to_port": "in_like",
        "type": "MincImageFile"
      },
      {
        "from_node": "75_dcm2mnc_pd",
        "from_port": "out_image",
        "id": "206_link_14",
        "to_node": "62_mincresample_pd",
        "to_port": "in_image",
        "type": "MincImageFile"
      },
      {
        "from_node": "50_mritoself_swi",
        "from_port": "out_transform",
        "id": "207_link_19",
        "to_node": "89_mincresample_swi",
        "to_port": "in_transform",
        "type": "MNIAffineTransformFile"
      },
      {
        "from_node": "42_dcm2mnc_t1",
        "from_port": "out_image",
        "id": "208_link_18",
        "to_node": "76_mincresample_flair",
        "to_port": "in_like",
        "type": "MincImageFile"
      },
      {
        "from_node": "86_ana2nii_T1",
        "from_port": "out_image",
        "id": "209_link_99",
        "to_node": "65_ana2nii_knnseg",
        "to_port": "in_reference_image",
        "type": "NiftiImageFileCompressed"
      },
      {
        "from_node": "21_minc2ana_knnseg_flip",
        "from_port": "out_image",
        "id": "210_link_98",
        "to_node": "65_ana2nii_knnseg",
        "to_port": "in_image",
        "type": "AnalyzeImageFile"
      },
      {
        "from_node": "64_wmlsegment",
        "from_port": "out_white_matter_lesion_mask",
        "id": "211_link_93",
        "to_node": "91_BrainMaskImprove",
        "to_port": "in_segmentation",
        "type": "NiftiImageFileCompressed"
      },
      {
        "from_node": "57_mask_nii2ana_flip",
        "from_port": "out_image",
        "id": "212_link_92",
        "to_node": "64_wmlsegment",
        "to_port": "in_brain_mask",
        "type": "AnalyzeImageFile"
      },
      {
        "from_node": "52_minc2ana_flair_flip",
        "from_port": "out_image",
        "id": "213_link_91",
        "to_node": "64_wmlsegment",
        "to_port": "in_flair",
        "type": "AnalyzeImageFile"
      },
      {
        "from_node": "21_minc2ana_knnseg_flip",
        "from_port": "out_image",
        "id": "214_link_90",
        "to_node": "64_wmlsegment",
        "to_port": "in_tissue_labels",
        "type": "AnalyzeImageFile"
      },
      {
        "from_node": "44_minc2ana_swi_flip",
        "from_port": "out_image",
        "id": "215_link_97",
        "to_node": "103_ana2nii_swi",
        "to_port": "in_image",
        "type": "AnalyzeImageFile"
      },
      {
        "from_node": "52_minc2ana_flair_flip",
        "from_port": "out_image",
        "id": "216_link_96",
        "to_node": "92_ana2nii_flair",
        "to_port": "in_image",
        "type": "AnalyzeImageFile"
      },
      {
        "from_node": "30_minc2ana_pd_flip",
        "from_port": "out_image",
        "id": "217_link_95",
        "to_node": "32_ana2nii_pd",
        "to_port": "in_image",
        "type": "AnalyzeImageFile"
      },
      {
        "from_node": "66_minc2ana_t1_flip",
        "from_port": "out_image",
        "id": "218_link_94",
        "to_node": "86_ana2nii_T1",
        "to_port": "in_image",
        "type": "AnalyzeImageFile"
      }
    ],
    "nodes": [
      {
        "group_id": "4_sinks",
        "id": "16_sink_flair",
        "in_ports": [
          {
            "description": "The data to be store by the SinkNode",
            "id": "in_input"
          }
        ],
        "out_ports": [

        ],
        "type": "sink"
      },
      {
        "group_id": "1_elastix_mask",
        "id": "17_const_elastix_mask_moving_image_0",
        "in_ports": [

        ],
        "out_ports": [
          {
            "description": "",
            "id": "out_output"
          }
        ],
        "type": "constant"
      },
      {
        "group_id": "9_coreg",
        "id": "18_thresholds",
        "in_ports": [

        ],
        "out_ports": [
          {
            "description": "",
            "id": "out_output"
          }
        ],
        "type": "constant"
      },
      {
        "group_id": "7_NUC",
        "id": "19_N3_T1",
        "in_ports": [
          {
            "description": "",
            "id": "in_image"
          },
          {
            "description": "",
            "id": "in_clobber_flag"
          },
          {
            "description": "",
            "id": "in_quiet_flag"
          },
          {
            "description": "",
            "id": "in_normalize_field_flag"
          },
          {
            "description": "",
            "id": "in_iterations"
          },
          {
            "description": "",
            "id": "in_stop"
          },
          {
            "description": "",
            "id": "in_mask"
          }
        ],
        "out_ports": [
          {
            "description": "",
            "id": "out_image"
          }
        ],
        "type": "node"
      },
      {
        "group_id": "7_NUC",
        "id": "20_const_N3_PD_stop_0",
        "in_ports": [

        ],
        "out_ports": [
          {
            "description": "",
            "id": "out_output"
          }
        ],
        "type": "constant"
      },
      {
        "group_id": "15_mnc2ana_flip",
        "id": "21_minc2ana_knnseg_flip",
        "in_ports": [
          {
            "description": "",
            "id": "in_image"
          },
          {
            "description": "",
            "id": "in_neuro_flag"
          }
        ],
        "out_ports": [
          {
            "description": "",
            "id": "out_image"
          }
        ],
        "type": "node"
      },
      {
        "group_id": "1_elastix_mask",
        "id": "22_const_transformix_mask_image_0",
        "in_ports": [

        ],
        "out_ports": [
          {
            "description": "",
            "id": "out_output"
          }
        ],
        "type": "constant"
      },
      {
        "group_id": "4_sinks",
        "id": "23_sink_knnseg",
        "in_ports": [
          {
            "description": "The data to be store by the SinkNode",
            "id": "in_input"
          }
        ],
        "out_ports": [

        ],
        "type": "sink"
      },
      {
        "group_id": "6_finalconvert",
        "id": "24_ana2nii_lobes",
        "in_ports": [
          {
            "description": "",
            "id": "in_image"
          },
          {
            "description": "",
            "id": "in_reference_image"
          }
        ],
        "out_ports": [
          {
            "description": "",
            "id": "out_image"
          }
        ],
        "type": "node"
      },
      {
        "group_id": "3_multi_atlas_reg",
        "id": "25_multi_atlas_trans_masks_t1",
        "in_ports": [
          {
            "description": "",
            "id": "in_transform"
          },
          {
            "description": "",
            "id": "in_image"
          },
          {
            "description": "",
            "id": "in_points"
          },
          {
            "description": "",
            "id": "in_determinant_of_jacobian_flag"
          },
          {
            "description": "",
            "id": "in_jacobian_matrix_flag"
          },
          {
            "description": "",
            "id": "in_priority"
          },
          {
            "description": "",
            "id": "in_threads"
          }
        ],
        "out_ports": [
          {
            "description": "",
            "id": "out_directory"
          },
          {
            "description": "",
            "id": "out_image"
          },
          {
            "description": "",
            "id": "out_points"
          },
          {
            "description": "",
            "id": "out_determinant_of_jacobian"
          },
          {
            "description": "",
            "id": "out_jacobian_matrix"
          },
          {
            "description": "",
            "id": "out_log_file"
          }
        ],
        "type": "node"
      },
      {
        "group_id": "7_NUC",
        "id": "26_const_N3_swi_stop_0",
        "in_ports": [

        ],
        "out_ports": [
          {
            "description": "",
            "id": "out_output"
          }
        ],
        "type": "constant"
      },
      {
        "group_id": "7_NUC",
        "id": "27_const_N3_flair_iterations_0",
        "in_ports": [

        ],
        "out_ports": [
          {
            "description": "",
            "id": "out_output"
          }
        ],
        "type": "constant"
      },
      {
        "group_id": "7_NUC",
        "id": "28_const_N3_T1_iterations_0",
        "in_ports": [

        ],
        "out_ports": [
          {
            "description": "",
            "id": "out_output"
          }
        ],
        "type": "constant"
      },
      {
        "group_id": "7_NUC",
        "id": "29_const_N3_swi_iterations_0",
        "in_ports": [

        ],
        "out_ports": [
          {
            "description": "",
            "id": "out_output"
          }
        ],
        "type": "constant"
      },
      {
        "group_id": "15_mnc2ana_flip",
        "id": "30_minc2ana_pd_flip",
        "in_ports": [
          {
            "description": "",
            "id": "in_image"
          },
          {
            "description": "",
            "id": "in_neuro_flag"
          }
        ],
        "out_ports": [
          {
            "description": "",
            "id": "out_image"
          }
        ],
        "type": "node"
      },
      {
        "group_id": "4_sinks",
        "id": "31_sink_knnwml",
        "in_ports": [
          {
            "description": "The data to be store by the SinkNode",
            "id": "in_input"
          }
        ],
        "out_ports": [

        ],
        "type": "sink"
      },
      {
        "group_id": "6_finalconvert",
        "id": "32_ana2nii_pd",
        "in_ports": [
          {
            "description": "",
            "id": "in_image"
          },
          {
            "description": "",
            "id": "in_reference_image"
          }
        ],
        "out_ports": [
          {
            "description": "",
            "id": "out_image"
          }
        ],
        "type": "node"
      },
      {
        "group_id": "10_mask2ana",
        "id": "33_mask2mnc_modify_header",
        "in_ports": [
          {
            "description": "",
            "id": "in_image"
          },
          {
            "description": "",
            "id": "in_mask"
          }
        ],
        "out_ports": [
          {
            "description": "",
            "id": "out_image"
          }
        ],
        "type": "node"
      },
      {
        "group_id": "14_rama",
        "id": "34_const_rama_flair_const2_0",
        "in_ports": [

        ],
        "out_ports": [
          {
            "description": "",
            "id": "out_output"
          }
        ],
        "type": "constant"
      },
      {
        "group_id": "4_sinks",
        "id": "35_sink_mask",
        "in_ports": [
          {
            "description": "The data to be store by the SinkNode",
            "id": "in_input"
          }
        ],
        "out_ports": [

        ],
        "type": "sink"
      },
      {
        "group_id": "4_sinks",
        "id": "36_sink_swi",
        "in_ports": [
          {
            "description": "The data to be store by the SinkNode",
            "id": "in_input"
          }
        ],
        "out_ports": [

        ],
        "type": "sink"
      },
      {
        "group_id": "1_elastix_mask",
        "id": "37_transformix_mask",
        "in_ports": [
          {
            "description": "",
            "id": "in_transform"
          },
          {
            "description": "",
            "id": "in_image"
          },
          {
            "description": "",
            "id": "in_points"
          },
          {
            "description": "",
            "id": "in_determinant_of_jacobian_flag"
          },
          {
            "description": "",
            "id": "in_jacobian_matrix_flag"
          },
          {
            "description": "",
            "id": "in_priority"
          },
          {
            "description": "",
            "id": "in_threads"
          }
        ],
        "out_ports": [
          {
            "description": "",
            "id": "out_directory"
          },
          {
            "description": "",
            "id": "out_image"
          },
          {
            "description": "",
            "id": "out_points"
          },
          {
            "description": "",
            "id": "out_determinant_of_jacobian"
          },
          {
            "description": "",
            "id": "out_jacobian_matrix"
          },
          {
            "description": "",
            "id": "out_log_file"
          }
        ],
        "type": "node"
      },
      {
        "group_id": "7_NUC",
        "id": "38_N3_swi",
        "in_ports": [
          {
            "description": "",
            "id": "in_image"
          },
          {
            "description": "",
            "id": "in_clobber_flag"
          },
          {
            "description": "",
            "id": "in_quiet_flag"
          },
          {
            "description": "",
            "id": "in_normalize_field_flag"
          },
          {
            "description": "",
            "id": "in_iterations"
          },
          {
            "description": "",
            "id": "in_stop"
          },
          {
            "description": "",
            "id": "in_mask"
          }
        ],
        "out_ports": [
          {
            "description": "",
            "id": "out_image"
          }
        ],
        "type": "node"
      },
      {
        "group_id": "0_knnseg",
        "id": "39_const_knnseg_trained_features_0",
        "in_ports": [

        ],
        "out_ports": [
          {
            "description": "",
            "id": "out_output"
          }
        ],
        "type": "constant"
      },
      {
        "group_id": "10_mask2ana",
        "id": "40_mask2mnc_ana2mnc",
        "in_ports": [
          {
            "description": "",
            "id": "in_image"
          }
        ],
        "out_ports": [
          {
            "description": "",
            "id": "out_image"
          }
        ],
        "type": "node"
      },
      {
        "group_id": "14_rama",
        "id": "41_rama_PD",
        "in_ports": [
          {
            "description": "",
            "id": "in_image"
          },
          {
            "description": "",
            "id": "in_clobber_flag"
          },
          {
            "description": "",
            "id": "in_nocache_flag"
          },
          {
            "description": "",
            "id": "in_mask"
          },
          {
            "description": "",
            "id": "in_range"
          },
          {
            "description": "",
            "id": "in_constants"
          }
        ],
        "out_ports": [
          {
            "description": "",
            "id": "out_image"
          }
        ],
        "type": "node"
      },
      {
        "group_id": "2_convert",
        "id": "42_dcm2mnc_t1",
        "in_ports": [
          {
            "description": "",
            "id": "in_dicom_images"
          }
        ],
        "out_ports": [
          {
            "description": "",
            "id": "out_image"
          }
        ],
        "type": "node"
      },
      {
        "group_id": "0_knnseg",
        "id": "43_const_knnseg_parameters_0",
        "in_ports": [

        ],
        "out_ports": [
          {
            "description": "",
            "id": "out_output"
          }
        ],
        "type": "constant"
      },
      {
        "group_id": "15_mnc2ana_flip",
        "id": "44_minc2ana_swi_flip",
        "in_ports": [
          {
            "description": "",
            "id": "in_image"
          },
          {
            "description": "",
            "id": "in_neuro_flag"
          }
        ],
        "out_ports": [
          {
            "description": "",
            "id": "out_image"
          }
        ],
        "type": "node"
      },
      {
        "group_id": "14_rama",
        "id": "45_const_rama_PD_constants_0",
        "in_ports": [

        ],
        "out_ports": [
          {
            "description": "",
            "id": "out_output"
          }
        ],
        "type": "constant"
      },
      {
        "group_id": "4_sinks",
        "id": "46_sink_pd",
        "in_ports": [
          {
            "description": "The data to be store by the SinkNode",
            "id": "in_input"
          }
        ],
        "out_ports": [

        ],
        "type": "sink"
      },
      {
        "group_id": "3_multi_atlas_reg",
        "id": "47_multi_atlas_combine_lobes_intensity",
        "in_ports": [
          {
            "description": "",
            "id": "in_image"
          },
          {
            "description": "",
            "id": "in_original_values"
          },
          {
            "description": "",
            "id": "in_substitute_values"
          },
          {
            "description": "",
            "id": "in_component_type"
          }
        ],
        "out_ports": [
          {
            "description": "",
            "id": "out_image"
          }
        ],
        "type": "node"
      },
      {
        "group_id": "3_multi_atlas_reg",
        "id": "48_const_multi_atlas_combine_masks_number_of_classes_0",
        "in_ports": [

        ],
        "out_ports": [
          {
            "description": "",
            "id": "out_output"
          }
        ],
        "type": "constant"
      },
      {
        "group_id": "7_NUC",
        "id": "49_N3_flair",
        "in_ports": [
          {
            "description": "",
            "id": "in_image"
          },
          {
            "description": "",
            "id": "in_clobber_flag"
          },
          {
            "description": "",
            "id": "in_quiet_flag"
          },
          {
            "description": "",
            "id": "in_normalize_field_flag"
          },
          {
            "description": "",
            "id": "in_iterations"
          },
          {
            "description": "",
            "id": "in_stop"
          },
          {
            "description": "",
            "id": "in_mask"
          }
        ],
        "out_ports": [
          {
            "description": "",
            "id": "out_image"
          }
        ],
        "type": "node"
      },
      {
        "group_id": "9_coreg",
        "id": "50_mritoself_swi",
        "in_ports": [
          {
            "description": "",
            "id": "in_source"
          },
          {
            "description": "",
            "id": "in_target"
          },
          {
            "description": "",
            "id": "in_clobber_flag"
          },
          {
            "description": "",
            "id": "in_threshold"
          }
        ],
        "out_ports": [
          {
            "description": "",
            "id": "out_transform"
          }
        ],
        "type": "node"
      },
      {
        "group_id": "0_knnseg",
        "id": "51_knnseg",
        "in_ports": [
          {
            "description": "",
            "id": "in_t1"
          },
          {
            "description": "",
            "id": "in_pd"
          },
          {
            "description": "",
            "id": "in_parameters"
          },
          {
            "description": "",
            "id": "in_trained_features"
          },
          {
            "description": "",
            "id": "in_fknn_flag"
          },
          {
            "description": "",
            "id": "in_clobber_flag"
          },
          {
            "description": "",
            "id": "in_verbose_flag"
          }
        ],
        "out_ports": [
          {
            "description": "",
            "id": "out_label_image"
          }
        ],
        "type": "node"
      },
      {
        "group_id": "15_mnc2ana_flip",
        "id": "52_minc2ana_flair_flip",
        "in_ports": [
          {
            "description": "",
            "id": "in_image"
          },
          {
            "description": "",
            "id": "in_neuro_flag"
          }
        ],
        "out_ports": [
          {
            "description": "",
            "id": "out_image"
          }
        ],
        "type": "node"
      },
      {
        "group_id": "13_mnc2ana",
        "id": "53_const_minc2ana_t1_neuro_flag_0",
        "in_ports": [

        ],
        "out_ports": [
          {
            "description": "",
            "id": "out_output"
          }
        ],
        "type": "constant"
      },
      {
        "group_id": "3_multi_atlas_reg",
        "id": "54_multi_atlas_reg_t1",
        "in_ports": [
          {
            "description": "",
            "id": "in_fixed_image"
          },
          {
            "description": "",
            "id": "in_moving_image"
          },
          {
            "description": "",
            "id": "in_parameters"
          },
          {
            "description": "",
            "id": "in_fixed_mask"
          },
          {
            "description": "",
            "id": "in_moving_mask"
          },
          {
            "description": "",
            "id": "in_initial_transform"
          },
          {
            "description": "",
            "id": "in_priority"
          },
          {
            "description": "",
            "id": "in_threads"
          }
        ],
        "out_ports": [
          {
            "description": "",
            "id": "out_directory"
          },
          {
            "description": "",
            "id": "out_transform"
          },
          {
            "description": "",
            "id": "out_log_file"
          }
        ],
        "type": "node"
      },
      {
        "group_id": "7_NUC",
        "id": "55_const_N3_PD_iterations_0",
        "in_ports": [

        ],
        "out_ports": [
          {
            "description": "",
            "id": "out_output"
          }
        ],
        "type": "constant"
      },
      {
        "group_id": "11_sources",
        "id": "56_PD",
        "in_ports": [

        ],
        "out_ports": [
          {
            "description": "",
            "id": "out_output"
          }
        ],
        "type": "source"
      },
      {
        "group_id": "5_nii2ana_flip",
        "id": "57_mask_nii2ana_flip",
        "in_ports": [
          {
            "description": "",
            "id": "in_image"
          }
        ],
        "out_ports": [
          {
            "description": "",
            "id": "out_image"
          }
        ],
        "type": "node"
      },
      {
        "group_id": "3_multi_atlas_reg",
        "id": "58_multi_atlas_combine_masks",
        "in_ports": [
          {
            "description": "",
            "id": "in_images"
          },
          {
            "description": "",
            "id": "in_method"
          },
          {
            "description": "",
            "id": "in_number_of_classes"
          },
          {
            "description": "",
            "id": "in_original_labels"
          },
          {
            "description": "",
            "id": "in_substitute_labels"
          }
        ],
        "out_ports": [
          {
            "description": "",
            "id": "out_hard_segment"
          }
        ],
        "type": "node"
      },
      {
        "group_id": "3_multi_atlas_reg",
        "id": "59_multi_atlases_lobes_templabels",
        "in_ports": [

        ],
        "out_ports": [
          {
            "description": "",
            "id": "out_output"
          }
        ],
        "type": "constant"
      },
      {
        "group_id": "11_sources",
        "id": "60_FLAIR",
        "in_ports": [

        ],
        "out_ports": [
          {
            "description": "",
            "id": "out_output"
          }
        ],
        "type": "source"
      },
      {
        "group_id": "3_multi_atlas_reg",
        "id": "61_const_multi_atlas_combine_lobes_number_of_classes_0",
        "in_ports": [

        ],
        "out_ports": [
          {
            "description": "",
            "id": "out_output"
          }
        ],
        "type": "constant"
      },
      {
        "group_id": "9_coreg",
        "id": "62_mincresample_pd",
        "in_ports": [
          {
            "description": "",
            "id": "in_image"
          },
          {
            "description": "",
            "id": "in_clobber_flag"
          },
          {
            "description": "",
            "id": "in_trilinear_flag"
          },
          {
            "description": "",
            "id": "in_like"
          },
          {
            "description": "",
            "id": "in_transform"
          },
          {
            "description": "",
            "id": "in_invert_transformation"
          }
        ],
        "out_ports": [
          {
            "description": "",
            "id": "out_image"
          }
        ],
        "type": "node"
      },
      {
        "group_id": "6_finalconvert",
        "id": "63_ana2nii_mask",
        "in_ports": [
          {
            "description": "",
            "id": "in_image"
          },
          {
            "description": "",
            "id": "in_reference_image"
          }
        ],
        "out_ports": [
          {
            "description": "",
            "id": "out_image"
          }
        ],
        "type": "node"
      },
      {
        "group_id": "8_wmlsegment",
        "id": "64_wmlsegment",
        "in_ports": [
          {
            "description": "",
            "id": "in_tissue_labels"
          },
          {
            "description": "",
            "id": "in_flair"
          },
          {
            "description": "",
            "id": "in_brain_mask"
          },
          {
            "description": "",
            "id": "in_alpha"
          },
          {
            "description": "",
            "id": "in_beta"
          }
        ],
        "out_ports": [
          {
            "description": "",
            "id": "out_white_matter_lesion_mask"
          }
        ],
        "type": "node"
      },
      {
        "group_id": "6_finalconvert",
        "id": "65_ana2nii_knnseg",
        "in_ports": [
          {
            "description": "",
            "id": "in_image"
          },
          {
            "description": "",
            "id": "in_reference_image"
          }
        ],
        "out_ports": [
          {
            "description": "",
            "id": "out_image"
          }
        ],
        "type": "node"
      },
      {
        "group_id": "15_mnc2ana_flip",
        "id": "66_minc2ana_t1_flip",
        "in_ports": [
          {
            "description": "",
            "id": "in_image"
          },
          {
            "description": "",
            "id": "in_neuro_flag"
          }
        ],
        "out_ports": [
          {
            "description": "",
            "id": "out_image"
          }
        ],
        "type": "node"
      },
      {
        "group_id": "7_NUC",
        "id": "67_N3_PD",
        "in_ports": [
          {
            "description": "",
            "id": "in_image"
          },
          {
            "description": "",
            "id": "in_clobber_flag"
          },
          {
            "description": "",
            "id": "in_quiet_flag"
          },
          {
            "description": "",
            "id": "in_normalize_field_flag"
          },
          {
            "description": "",
            "id": "in_iterations"
          },
          {
            "description": "",
            "id": "in_stop"
          },
          {
            "description": "",
            "id": "in_mask"
          }
        ],
        "out_ports": [
          {
            "description": "",
            "id": "out_image"
          }
        ],
        "type": "node"
      },
      {
        "group_id": "2_convert",
        "id": "68_dcm2mnc_swi",
        "in_ports": [
          {
            "description": "",
            "id": "in_dicom_images"
          }
        ],
        "out_ports": [
          {
            "description": "",
            "id": "out_image"
          }
        ],
        "type": "node"
      },
      {
        "group_id": "9_coreg",
        "id": "69_mritoself_pd",
        "in_ports": [
          {
            "description": "",
            "id": "in_source"
          },
          {
            "description": "",
            "id": "in_target"
          },
          {
            "description": "",
            "id": "in_clobber_flag"
          },
          {
            "description": "",
            "id": "in_threshold"
          }
        ],
        "out_ports": [
          {
            "description": "",
            "id": "out_transform"
          }
        ],
        "type": "node"
      },
      {
        "group_id": "3_multi_atlas_reg",
        "id": "70_multi_atlases_masks",
        "in_ports": [

        ],
        "out_ports": [
          {
            "description": "",
            "id": "out_output"
          }
        ],
        "type": "constant"
      },
      {
        "group_id": "3_multi_atlas_reg",
        "id": "71_multi_atlases_lobes",
        "in_ports": [

        ],
        "out_ports": [
          {
            "description": "",
            "id": "out_output"
          }
        ],
        "type": "constant"
      },
      {
        "group_id": "3_multi_atlas_reg",
        "id": "72_multi_atlas_trans_lobes_t1",
        "in_ports": [
          {
            "description": "",
            "id": "in_transform"
          },
          {
            "description": "",
            "id": "in_image"
          },
          {
            "description": "",
            "id": "in_points"
          },
          {
            "description": "",
            "id": "in_determinant_of_jacobian_flag"
          },
          {
            "description": "",
            "id": "in_jacobian_matrix_flag"
          },
          {
            "description": "",
            "id": "in_priority"
          },
          {
            "description": "",
            "id": "in_threads"
          }
        ],
        "out_ports": [
          {
            "description": "",
            "id": "out_directory"
          },
          {
            "description": "",
            "id": "out_image"
          },
          {
            "description": "",
            "id": "out_points"
          },
          {
            "description": "",
            "id": "out_determinant_of_jacobian"
          },
          {
            "description": "",
            "id": "out_jacobian_matrix"
          },
          {
            "description": "",
            "id": "out_log_file"
          }
        ],
        "type": "node"
      },
      {
        "group_id": "4_sinks",
        "id": "73_sink_t1",
        "in_ports": [
          {
            "description": "The data to be store by the SinkNode",
            "id": "in_input"
          }
        ],
        "out_ports": [

        ],
        "type": "sink"
      },
      {
        "group_id": "14_rama",
        "id": "74_rama_T1",
        "in_ports": [
          {
            "description": "",
            "id": "in_image"
          },
          {
            "description": "",
            "id": "in_clobber_flag"
          },
          {
            "description": "",
            "id": "in_nocache_flag"
          },
          {
            "description": "",
            "id": "in_mask"
          },
          {
            "description": "",
            "id": "in_range"
          },
          {
            "description": "",
            "id": "in_constants"
          }
        ],
        "out_ports": [
          {
            "description": "",
            "id": "out_image"
          }
        ],
        "type": "node"
      },
      {
        "group_id": "2_convert",
        "id": "75_dcm2mnc_pd",
        "in_ports": [
          {
            "description": "",
            "id": "in_dicom_images"
          }
        ],
        "out_ports": [
          {
            "description": "",
            "id": "out_image"
          }
        ],
        "type": "node"
      },
      {
        "group_id": "9_coreg",
        "id": "76_mincresample_flair",
        "in_ports": [
          {
            "description": "",
            "id": "in_image"
          },
          {
            "description": "",
            "id": "in_clobber_flag"
          },
          {
            "description": "",
            "id": "in_trilinear_flag"
          },
          {
            "description": "",
            "id": "in_like"
          },
          {
            "description": "",
            "id": "in_transform"
          },
          {
            "description": "",
            "id": "in_invert_transformation"
          }
        ],
        "out_ports": [
          {
            "description": "",
            "id": "out_image"
          }
        ],
        "type": "node"
      },
      {
        "group_id": "6_finalconvert",
        "id": "77_ana2nii_knnwml",
        "in_ports": [
          {
            "description": "",
            "id": "in_image"
          },
          {
            "description": "",
            "id": "in_reference_image"
          }
        ],
        "out_ports": [
          {
            "description": "",
            "id": "out_image"
          }
        ],
        "type": "node"
      },
      {
        "group_id": "4_sinks",
        "id": "78_sink_lobes",
        "in_ports": [
          {
            "description": "The data to be store by the SinkNode",
            "id": "in_input"
          }
        ],
        "out_ports": [

        ],
        "type": "sink"
      },
      {
        "group_id": "3_multi_atlas_reg",
        "id": "79_multi_atlases_scans_t1",
        "in_ports": [

        ],
        "out_ports": [
          {
            "description": "",
            "id": "out_output"
          }
        ],
        "type": "constant"
      },
      {
        "group_id": "13_mnc2ana",
        "id": "80_minc2ana_t1",
        "in_ports": [
          {
            "description": "",
            "id": "in_image"
          },
          {
            "description": "",
            "id": "in_neuro_flag"
          }
        ],
        "out_ports": [
          {
            "description": "",
            "id": "out_image"
          }
        ],
        "type": "node"
      },
      {
        "group_id": "14_rama",
        "id": "81_const_rama_T1_constants_0",
        "in_ports": [

        ],
        "out_ports": [
          {
            "description": "",
            "id": "out_output"
          }
        ],
        "type": "constant"
      },
      {
        "group_id": "14_rama",
        "id": "82_rama_flair",
        "in_ports": [
          {
            "description": "",
            "id": "in_image"
          },
          {
            "description": "",
            "id": "in_mask"
          },
          {
            "description": "",
            "id": "in_const1"
          },
          {
            "description": "",
            "id": "in_const2"
          },
          {
            "description": "",
            "id": "in_const3"
          }
        ],
        "out_ports": [
          {
            "description": "",
            "id": "out_image"
          }
        ],
        "type": "node"
      },
      {
        "group_id": "3_multi_atlas_reg",
        "id": "83_multi_atlases_lobes_finallabels",
        "in_ports": [

        ],
        "out_ports": [
          {
            "description": "",
            "id": "out_output"
          }
        ],
        "type": "constant"
      },
      {
        "group_id": "14_rama",
        "id": "84_const_rama_PD_range_0",
        "in_ports": [

        ],
        "out_ports": [
          {
            "description": "",
            "id": "out_output"
          }
        ],
        "type": "constant"
      },
      {
        "group_id": "11_sources",
        "id": "85_SWI",
        "in_ports": [

        ],
        "out_ports": [
          {
            "description": "",
            "id": "out_output"
          }
        ],
        "type": "source"
      },
      {
        "group_id": "6_finalconvert",
        "id": "86_ana2nii_T1",
        "in_ports": [
          {
            "description": "",
            "id": "in_image"
          },
          {
            "description": "",
            "id": "in_reference_image"
          }
        ],
        "out_ports": [
          {
            "description": "",
            "id": "out_image"
          }
        ],
        "type": "node"
      },
      {
        "group_id": "3_multi_atlas_reg",
        "id": "87_multi_atlas_combine_lobes",
        "in_ports": [
          {
            "description": "",
            "id": "in_images"
          },
          {
            "description": "",
            "id": "in_method"
          },
          {
            "description": "",
            "id": "in_number_of_classes"
          },
          {
            "description": "",
            "id": "in_original_labels"
          },
          {
            "description": "",
            "id": "in_substitute_labels"
          }
        ],
        "out_ports": [
          {
            "description": "",
            "id": "out_hard_segment"
          }
        ],
        "type": "node"
      },
      {
        "group_id": "3_multi_atlas_reg",
        "id": "88_const_multi_atlas_combine_lobes_method_0",
        "in_ports": [

        ],
        "out_ports": [
          {
            "description": "",
            "id": "out_output"
          }
        ],
        "type": "constant"
      },
      {
        "group_id": "9_coreg",
        "id": "89_mincresample_swi",
        "in_ports": [
          {
            "description": "",
            "id": "in_image"
          },
          {
            "description": "",
            "id": "in_clobber_flag"
          },
          {
            "description": "",
            "id": "in_trilinear_flag"
          },
          {
            "description": "",
            "id": "in_like"
          },
          {
            "description": "",
            "id": "in_transform"
          },
          {
            "description": "",
            "id": "in_invert_transformation"
          }
        ],
        "out_ports": [
          {
            "description": "",
            "id": "out_image"
          }
        ],
        "type": "node"
      },
      {
        "group_id": "3_multi_atlas_reg",
        "id": "90_const_multi_atlas_combine_masks_method_0",
        "in_ports": [

        ],
        "out_ports": [
          {
            "description": "",
            "id": "out_output"
          }
        ],
        "type": "constant"
      },
      {
        "group_id": "12_brainmaskimprove",
        "id": "91_BrainMaskImprove",
        "in_ports": [
          {
            "description": "",
            "id": "in_segmentation"
          },
          {
            "description": "",
            "id": "in_fraction"
          }
        ],
        "out_ports": [
          {
            "description": "",
            "id": "out_segmentation"
          }
        ],
        "type": "node"
      },
      {
        "group_id": "6_finalconvert",
        "id": "92_ana2nii_flair",
        "in_ports": [
          {
            "description": "",
            "id": "in_image"
          },
          {
            "description": "",
            "id": "in_reference_image"
          }
        ],
        "out_ports": [
          {
            "description": "",
            "id": "out_image"
          }
        ],
        "type": "node"
      },
      {
        "group_id": "1_elastix_mask",
        "id": "93_elastix_mask",
        "in_ports": [
          {
            "description": "",
            "id": "in_fixed_image"
          },
          {
            "description": "",
            "id": "in_moving_image"
          },
          {
            "description": "",
            "id": "in_parameters"
          },
          {
            "description": "",
            "id": "in_fixed_mask"
          },
          {
            "description": "",
            "id": "in_moving_mask"
          },
          {
            "description": "",
            "id": "in_initial_transform"
          },
          {
            "description": "",
            "id": "in_priority"
          },
          {
            "description": "",
            "id": "in_threads"
          }
        ],
        "out_ports": [
          {
            "description": "",
            "id": "out_directory"
          },
          {
            "description": "",
            "id": "out_transform"
          },
          {
            "description": "",
            "id": "out_log_file"
          }
        ],
        "type": "node"
      },
      {
        "group_id": "14_rama",
        "id": "94_const_rama_T1_range_0",
        "in_ports": [

        ],
        "out_ports": [
          {
            "description": "",
            "id": "out_output"
          }
        ],
        "type": "constant"
      },
      {
        "group_id": "11_sources",
        "id": "95_T1",
        "in_ports": [

        ],
        "out_ports": [
          {
            "description": "",
            "id": "out_output"
          }
        ],
        "type": "source"
      },
      {
        "group_id": "2_convert",
        "id": "96_dcm2mnc_flair",
        "in_ports": [
          {
            "description": "",
            "id": "in_dicom_images"
          }
        ],
        "out_ports": [
          {
            "description": "",
            "id": "out_image"
          }
        ],
        "type": "node"
      },
      {
        "group_id": "9_coreg",
        "id": "97_mritoself_flair",
        "in_ports": [
          {
            "description": "",
            "id": "in_source"
          },
          {
            "description": "",
            "id": "in_target"
          },
          {
            "description": "",
            "id": "in_clobber_flag"
          },
          {
            "description": "",
            "id": "in_threshold"
          }
        ],
        "out_ports": [
          {
            "description": "",
            "id": "out_transform"
          }
        ],
        "type": "node"
      },
      {
        "group_id": "7_NUC",
        "id": "98_const_N3_T1_stop_0",
        "in_ports": [

        ],
        "out_ports": [
          {
            "description": "",
            "id": "out_output"
          }
        ],
        "type": "constant"
      },
      {
        "group_id": "14_rama",
        "id": "99_const_rama_flair_const3_0",
        "in_ports": [

        ],
        "out_ports": [
          {
            "description": "",
            "id": "out_output"
          }
        ],
        "type": "constant"
      },
      {
        "group_id": "7_NUC",
        "id": "100_const_N3_flair_stop_0",
        "in_ports": [

        ],
        "out_ports": [
          {
            "description": "",
            "id": "out_output"
          }
        ],
        "type": "constant"
      },
      {
        "group_id": "root",
        "id": "101_const_registration_parameters",
        "in_ports": [

        ],
        "out_ports": [
          {
            "description": "",
            "id": "out_output"
          }
        ],
        "type": "constant"
      },
      {
        "group_id": "5_nii2ana_flip",
        "id": "102_lobes_nii2ana_flip",
        "in_ports": [
          {
            "description": "",
            "id": "in_image"
          }
        ],
        "out_ports": [
          {
            "description": "",
            "id": "out_image"
          }
        ],
        "type": "node"
      },
      {
        "group_id": "6_finalconvert",
        "id": "103_ana2nii_swi",
        "in_ports": [
          {
            "description": "",
            "id": "in_image"
          },
          {
            "description": "",
            "id": "in_reference_image"
          }
        ],
        "out_ports": [
          {
            "description": "",
            "id": "out_image"
          }
        ],
        "type": "node"
      },
      {
        "group_id": "14_rama",
        "id": "104_const_rama_flair_const1_0",
        "in_ports": [

        ],
        "out_ports": [
          {
            "description": "",
            "id": "out_output"
          }
        ],
        "type": "constant"
      }
    ]
  },
  "workflow_engine": "fastr"
}